[gd_scene load_steps=5 format=2]

[ext_resource path="res://Projectiles/Beam/Beam.tscn" type="PackedScene" id=1]
[ext_resource path="res://Projectiles/ProjectileCaster.tscn" type="PackedScene" id=2]
[ext_resource path="res://Environment/TestWall.tscn" type="PackedScene" id=3]
[ext_resource path="res://Scenes/BeamFollowMouse.cs" type="Script" id=4]

[node name="ProjectileGym" type="Node2D"]
position = Vector2( 235.467, -2.82843 )

[node name="BeamFollowMouse" type="Node2D" parent="."]
script = ExtResource( 4 )
BeamPath = NodePath("../Beam")

[node name="ProjectileCaster" parent="." instance=ExtResource( 2 )]
position = Vector2( 43.404, 82.3923 )
rotation = 1.5865
CooldownDuration = 1.0
InitialSpeed = 60.0
AutoShoot = true
NbRaffaleProjectile = 15
RaffaleCooldown = 0.05

[node name="TestWall" parent="ProjectileCaster" instance=ExtResource( 3 )]
position = Vector2( 278.601, -6.36398 )

[node name="Beam" parent="." instance=ExtResource( 1 )]
position = Vector2( -160.243, 462.817 )
