[gd_scene load_steps=3 format=2]

[ext_resource path="res://Environment/TestWall.cs" type="Script" id=1]

[sub_resource type="CircleShape2D" id=1]
radius = 43.0465

[node name="TestWall" type="Node2D"]
script = ExtResource( 1 )

[node name="Polygon2D" type="Polygon2D" parent="."]
polygon = PoolVector2Array( -2.55801, -50.5441, 39.8685, 0.367767, -0.436676, 66.836, -66.1978, 30.7734, -57.7125, 13.0957, -73.2689, -23.6739 )

[node name="Area2D" type="Area2D" parent="."]
collision_layer = 4
collision_mask = 11

[node name="CollisionShape2D" type="CollisionShape2D" parent="Area2D"]
position = Vector2( -15.75, 3.75 )
shape = SubResource( 1 )
