[gd_scene load_steps=2 format=2]

[ext_resource path="res://Assets/Textures/bacin.png" type="Texture" id=1]

[node name="Bacon" type="StaticBody2D"]

[node name="CollisionPolygon2D" type="CollisionPolygon2D" parent="."]
polygon = PoolVector2Array( -81.953, -127.363, 118.18, 11.3854, 136.68, 46.7031, 92.1126, 75.2935, 85.3854, 112.293, 49.2269, 128.27, 29.8863, 108.929, 18.9546, 83.7025, -8.79498, 70.2482, -134.929, -53.3636, -122.316, -86.9995, -102.975, -94.5675, -91.2028, -127.363 )

[node name="Sprite" type="Sprite" parent="."]
texture = ExtResource( 1 )
