[gd_scene load_steps=2 format=2]

[ext_resource path="res://Assets/Textures/wishbone.png" type="Texture" id=1]

[node name="WishBone" type="StaticBody2D"]

[node name="Sprite" type="Sprite" parent="."]
texture = ExtResource( 1 )

[node name="CollisionPolygon2D" type="CollisionPolygon2D" parent="."]
polygon = PoolVector2Array( -96, -79, -129, -123, -137, -166, -104, -172, -78, -150, -76, -102, -40, -84, 32, -65, 90, -15, 116, 40, 134, 54, 135, 97, -40, 173, -104, 120, -116, 55, -106, -32 )
