[gd_scene load_steps=3 format=2]

[ext_resource path="res://Mobs/WhiteCell1DirectionTargetedShots.tscn" type="PackedScene" id=1]
[ext_resource path="res://Scenes/EnemisPrefabs/WhiteCell_8Direction_Spawner.tscn" type="PackedScene" id=2]

[node name="WhiteCell_1Direction_Targeted_Spawner" instance=ExtResource( 2 )]

[node name="Spawner" parent="." index="0"]
MobScene = ExtResource( 1 )
NodeToFollowPath = NodePath("../../WhiteCell_1Direction_Targeted_Spawner/Path2D2/PathFollow2D/Node2D")
