[gd_scene load_steps=2 format=2]

[ext_resource path="res://Projectiles/Trajectory/SineProjectileTrajectory.cs" type="Script" id=1]

[node name="SineTrajectory" type="Node"]
script = ExtResource( 1 )
