[gd_scene load_steps=7 format=2]

[ext_resource path="res://Assets/Textures/FXs/charging_FXs.jpg" type="Texture" id=1]
[ext_resource path="res://Assets/Textures/FXs/ChargeParticleGradient_End.tres" type="Texture" id=2]

[sub_resource type="CanvasItemMaterial" id=1]
blend_mode = 1
particles_animation = true
particles_anim_h_frames = 3
particles_anim_v_frames = 1
particles_anim_loop = true

[sub_resource type="Curve" id=2]
_data = [ Vector2( 0, 0.879545 ), 0.0, -0.181423, 0, 0, Vector2( 1, 0.0613636 ), -1.53128, 0.0, 0, 0 ]

[sub_resource type="CurveTexture" id=3]
curve = SubResource( 2 )

[sub_resource type="ParticlesMaterial" id=4]
resource_local_to_scene = true
flag_disable_z = true
gravity = Vector3( 0, 0, 0 )
orbit_velocity = 1.11
orbit_velocity_random = 0.0
angle = 180.0
angle_random = 1.0
scale = 0.6
scale_curve = SubResource( 3 )
color_ramp = ExtResource( 2 )
hue_variation = 0.1
hue_variation_random = 1.0
anim_offset = 1.0
anim_offset_random = 1.0

[node name="Charging_FX" type="Node2D"]

[node name="Particles2D" type="Particles2D" parent="."]
material = SubResource( 1 )
amount = 4
lifetime = 0.7
process_material = SubResource( 4 )
texture = ExtResource( 1 )
