[gd_scene load_steps=2 format=2]

[ext_resource path="res://Brains/ShootAndChargeBrain.cs" type="Script" id=1]

[node name="ShootAndChargeBrain" type="Node"]
script = ExtResource( 1 )
ShootingRange = 0.0
