[gd_resource type="DynamicFont" load_steps=2 format=2]

[ext_resource path="res://Assets/Font/GretoonHighlight.ttf" type="DynamicFontData" id=1]

[resource]
size = 30
outline_size = 3
outline_color = Color( 0, 0, 0, 1 )
extra_spacing_bottom = 10
extra_spacing_char = 4
extra_spacing_space = -5
font_data = ExtResource( 1 )
