[gd_scene load_steps=4 format=2]

[ext_resource path="res://Mobs/WhiteCell/WhiteCellMob.tscn" type="PackedScene" id=1]
[ext_resource path="res://Projectiles/ProjectileCaster.tscn" type="PackedScene" id=2]
[ext_resource path="res://Projectiles/WhiteCellProjectile_Straight.tscn" type="PackedScene" id=3]

[node name="WhiteCell" instance=ExtResource( 1 )]
RotateProjectileCastersTowardPlayer = false

[node name="AnimatedSprite" parent="." index="1"]
frame = 4

[node name="ProjectileCaster" parent="ProjectileOffset" index="0" instance=ExtResource( 2 )]
position = Vector2( -304.83, -1.49829 )
rotation = 3.14326
ProjectileScene = ExtResource( 3 )
